1996,-8%,-8%,8.25%
1997,12%,19%,7%
1998,-9%,25%,8.50%
1999,98%,-9%,6.75%
2000,-24%,54%,6.75%
2001,-23%,63%,5.50%
2002,15%,23%,7.50%
2003,52%,-9%,8.25%
2004,50%,-23%,10%
2005,44%,23%,10.25%
2006,103%,-29%,10.50%
2007,-57%,-17%,11.75%
2008,89%,41%,9.50%
2009,14%,67%,6.75%
2010,-27%,21%,8%
2011,32%,4%,9.50%
2012,4%,12%,10%
2013,38%,-18%,11.50%
2014,-1%,-39%,13.50%
2015,4%,16%,12.50%
2016,36%,23%,10.25%
2017,-3%,47%,8%
2018,8%,32%,8.25%
2019,-21%,37%,9.50%
2020,69%,15%,10.75%
